INDEX VERSION 1.131+C:\Devoir_Matar Fanta Dieng_M1 AFI\.metadata\.plugins\org.eclipse.jdt.core
1486947810.index
1107717947.index
3751232636.index
455694347.index
2293770734.index
868504487.index
4226290088.index
629422388.index
177075246.index
1794120031.index
396602407.index
1144223831.index
3742011408.index
454190312.index
2539582327.index
1853506845.index
3523637107.index
3108032225.index
2676087419.index
58385128.index
823388405.index
3327182339.index
2042400760.index
1923072502.index
2455924999.index
2477196000.index
2944897761.index
2160032645.index
2255048281.index
3037588465.index
4194005774.index
2534979728.index
576170160.index
1843118003.index
2265101837.index
3425228988.index
3411336579.index
489865681.index
2843426585.index
3554899963.index
1208811704.index
3546233002.index
1584901290.index
1370395649.index
4163279438.index
2151740589.index
2749803759.index
943552765.index
2341825714.index
2793851761.index
3452415921.index
3639747715.index
2926148513.index
2934857914.index
4244596681.index
3143196188.index
3966167377.index
4217846543.index
2923660727.index
3657562902.index
572099630.index
1573891447.index
1908249753.index
1681984805.index
1310545472.index
2603053984.index
3323947873.index
2618130802.index
3045179702.index
855269228.index
218875356.index
106994093.index
2869865919.index
2376363422.index
1409791990.index
1793127778.index
1810401178.index
1060349579.index
3099193075.index
2934150984.index
2252767580.index
3971721366.index
1509185022.index
2973890789.index
4138816188.index
591845658.index
